{
  "cordova-plugin-whitelist": {
    "source": {
      "type": "registry",
      "id": "cordova-plugin-whitelist@1.3.2"
    },
    "is_top_level": true,
    "variables": {}
  },
  "cordova-plugin-console": {
    "source": {
      "type": "registry",
      "id": "cordova-plugin-console@~1.0.2"
    },
    "is_top_level": true,
    "variables": {}
  },
  "cordova-plugin-device": {
    "source": {
      "type": "registry",
      "id": "cordova-plugin-device@~1.1.1"
    },
    "is_top_level": true,
    "variables": {}
  },
  "cordova-plugin-device-orientation": {
    "source": {
      "type": "registry",
      "id": "cordova-plugin-device-orientation@~1.0.2"
    },
    "is_top_level": true,
    "variables": {}
  },
  "cordova-plugin-vibration": {
    "source": {
      "type": "registry",
      "id": "cordova-plugin-vibration@~2.1.0"
    },
    "is_top_level": true,
    "variables": {}
  },
  "cordova-plugin-dialogs": {
    "source": {
      "type": "registry",
      "id": "cordova-plugin-dialogs@~1.3.0"
    },
    "is_top_level": true,
    "variables": {}
  },
  "cordova-plugin-file": {
    "source": {
      "type": "registry",
      "id": "cordova-plugin-file@~4.3.0"
    },
    "is_top_level": true,
    "variables": {}
  },
  "cordova-plugin-compat": {
    "source": {
      "type": "registry",
      "id": "cordova-plugin-compat@^1.0.0"
    },
    "is_top_level": false,
    "variables": {}
  },
  "cordova-plugin-file-transfer": {
    "source": {
      "type": "registry",
      "id": "cordova-plugin-file-transfer@~1.6.0"
    },
    "is_top_level": true,
    "variables": {}
  },
  "cordova-plugin-inappbrowser": {
    "source": {
      "type": "registry",
      "id": "cordova-plugin-inappbrowser@~1.5.0"
    },
    "is_top_level": true,
    "variables": {}
  },
  "cordova-plugin-media": {
    "source": {
      "type": "registry",
      "id": "cordova-plugin-media@~2.4.0"
    },
    "is_top_level": true,
    "variables": {}
  },
  "cordova-plugin-mauron85-background-geolocation": {
    "source": {
      "type": "registry",
      "id": "cordova-plugin-mauron85-background-geolocation@2.3.6"
    },
    "is_top_level": true,
    "variables": {
      "ALWAYS_USAGE_DESCRIPTION": "App requires background tracking enabled",
      "MOTION_USAGE_DESCRIPTION": "App requires motion detection",
      "GOOGLE_PLAY_SERVICES_VERSION": "11.0.1",
      "ANDROID_SUPPORT_LIBRARY_VERSION": "23+"
    }
  },
  "phonegap-plugin-push": {
    "source": {
      "type": "registry",
      "id": "phonegap-plugin-push@~2.1.0"
    },
    "is_top_level": true,
    "variables": {
      "FCM_VERSION": "11.0.1"
    }
  },
  "cordova-plugin-qrscanner": {
    "source": {
      "type": "registry",
      "id": "cordova-plugin-qrscanner@^2.6.0"
    },
    "is_top_level": true,
    "variables": {}
  },
  "cordova-plugin-background-mode": {
    "source": {
      "type": "registry",
      "id": "cordova-plugin-background-mode@^0.7.2"
    },
    "is_top_level": true,
    "variables": {}
  },
  "cordova.plugins.diagnostic": {
    "source": {
      "type": "registry",
      "id": "cordova.plugins.diagnostic@^3.9.2"
    },
    "is_top_level": true,
    "variables": {}
  },
  "uk.co.workingedge.phonegap.plugin.launchnavigator": {
    "source": {
      "type": "registry",
      "id": "uk.co.workingedge.phonegap.plugin.launchnavigator@^4.2.0"
    },
    "is_top_level": true,
    "variables": {
      "OKHTTP_VERSION": "3.+"
    }
  },
  "cordova-plugin-actionsheet": {
    "source": {
      "type": "registry",
      "id": "cordova-plugin-actionsheet@2"
    },
    "is_top_level": false,
    "variables": {}
  },
  "org.apache.cordova.splashscreen": {
    "source": {
      "type": "registry",
      "id": "cordova-plugin-splashscreen@~1.0.0"
    },
    "is_top_level": true,
    "variables": {}
  },
  "cordova-plugin-statusbar": {
    "source": {
      "type": "registry",
      "id": "cordova-plugin-statusbar@2.4.2"
    },
    "is_top_level": true,
    "variables": {}
  }
}